{
  "name": "Finding Worms",
  "icon": "minecraft:dirt",
  "category": "biocircuitry:getting_started",
  "sortnum": 1,
  "pages": [
    {
      "type": "text",
      "text": "$(item)Worms$() exist almost everywhere, but often hide to avoid being eaten by predators. As a result, drawing them out so they can be collected for study, breeding, and feeding is required.$(br2)By using a $(l:tools_of_the_trade/rooping_iron)Rooping Iron$(/l) on a $(l:tools_of_the_trade/stob)Stob$(/l), we can scare $(item)worms$() out of their hiding places. The $(item)worms$() that appear depend on the environment in which they were found"
    },
    {
      "type": "image",
      "images": [
        "biocircuitry:textures/gui/entries/finding_worms/search.png"
      ],
      "text": "Steve begins his search for $(item)worms$().",
      "border": true
    },
    {
      "type": "text",
      "text": "Certain $(item)worms$() are not so easily scared out, however. For these particularly brave specimens, a bait item may be required. What the bait required is usually depends on their diet and habitat.$(br2)To set the bait, simply drop the bait item near the ground near the $(item)Stob$() before you hit it with the $(item)Rooping Iron$(). Don't worry; the bait will not be consumed no $(item)worm$() takes interest in it."
    },
    {
      "type": "image",
      "images": [
        "biocircuitry:textures/gui/entries/finding_worms/bait.png"
      ],
      "text": "The bait laid, Steve gets ready to draw out some $(item)worms$().",
      "border": true
    },
    {
      "type": "text",
      "text": "Each $(item)worm$() is unique, having its own mutations and genetic sequence independent of its brethren. You probably want to analyze each $(item)worms$() you collect with a $(l:tools_of_the_trade/sequencer)Sequencer$(/l) to identify these as you go.$(br2)If you're looking for $(item)worms$() containing certain protein sequences, the sequencer can also be configured to highlight them for you; when you find them, you know immediately!"
    },
    {
      "type": "image",
      "images": [
        "biocircuitry:textures/gui/entries/finding_worms/sequence.png"
      ],
      "text": "The $(item)worm$() now caught, Steve sequences it to determine whether it is worth keeping.",
      "border": true
    }
  ]
}