{
  "minecraft:oak_sapling": {
    "biocircuitry:wood_pulp": 8,
    "biocircuitry:plant_fibre": 8
  },
  "minecraft:spruce_sapling": {
    "biocircuitry:wood_pulp": 8,
    "biocircuitry:plant_fibre": 8
  },
  "minecraft:birch_sapling": {
    "biocircuitry:wood_pulp": 8,
    "biocircuitry:plant_fibre": 8
  },
  "minecraft:jungle_sapling": {
    "biocircuitry:wood_pulp": 8,
    "biocircuitry:plant_fibre": 8
  },
  "minecraft:acacia_sapling": {
    "biocircuitry:wood_pulp": 8,
    "biocircuitry:plant_fibre": 8
  },
  "minecraft:dark_oak_sapling": {
    "biocircuitry:wood_pulp": 8,
    "biocircuitry:plant_fibre": 8
  }
}
