{
  "type": "minecraft:crafting_shaped",
  "pattern": [
    "III",
    "G#G",
    "III"
  ],
  "key": {
    "I": {
      "item": "minecraft:iron_ingot"
    },
    "G": {
      "item": "minecraft:glowstone_dust"
    },
    "#": {
      "item": "minecraft:green_stained_glass_pane"
    }
  },
  "result": {
    "item": "biocircuitry:chromatograph",
    "count": 1
  }
}

